# Blender v2.80 (sub 75) OBJ File: 'elephun_lamp.blend'
# www.blender.org
o Plane.003
v -0.162909 3.405431 -0.012790
v -0.279126 3.549946 0.243065
v -0.162909 3.405431 -0.187737
v -0.279126 3.549946 -0.303954
v 0.151675 3.405431 -0.012790
v 0.267893 3.549946 0.243065
v 0.151675 3.405431 -0.187737
v 0.267893 3.549946 -0.303954
v 0.008614 2.686707 1.659887
v 1.131117 1.156314 6.333606
v 1.045625 1.606314 4.133606
v 1.034295 1.956314 2.633606
v 0.999940 2.656314 2.533606
v 0.810078 4.634385 2.333606
v 0.535878 2.968880 1.594282
v 0.624289 4.325269 1.645216
v 1.284553 3.401439 7.048606
v 0.508856 2.280745 8.228606
v 0.499940 0.005075 7.072206
v 0.387789 2.709349 1.630392
v 0.999940 0.007092 3.531744
v 0.999940 -0.010055 2.964405
v 0.610696 -0.010055 2.938174
v 0.496398 0.005075 6.272206
v 0.497622 0.005075 7.072206
v 0.902897 0.005075 6.325642
v 0.938822 0.005075 6.899980
v 0.499940 0.005075 6.272206
v 1.200134 4.538807 2.891854
v -0.000060 2.420915 0.809596
v 0.337406 2.762545 0.944118
v 0.337406 2.455455 0.795827
v -0.000060 2.780468 0.182647
v 0.260166 2.928888 0.336282
v 0.260166 2.815815 0.194184
v -0.000060 3.256173 -0.095242
v 0.181726 3.253095 -0.058003
v 1.660087 3.684506 3.504615
v 1.660087 4.684656 3.364615
v 1.913101 4.684656 3.364615
v 0.181726 3.253095 -0.058003
v -0.000060 4.171386 7.166918
v -0.000059 1.156314 6.333606
v -0.000060 4.922368 3.055380
v -0.000060 1.956314 2.633606
v -0.000060 4.962912 2.355380
v -0.000060 2.656314 2.533606
v -0.000060 4.316821 1.255642
v -0.008733 2.686707 1.659887
v -0.000060 3.173270 1.227612
v -0.000060 1.606314 4.133606
v -0.000060 2.356314 8.333607
v -0.000060 1.656314 8.033607
v -1.131236 1.156314 6.333606
v -1.045744 1.606313 4.133606
v -1.034414 1.956313 2.633606
v -1.000060 2.656314 2.533606
v -0.810197 4.634385 2.333606
v -0.535997 2.968880 1.594282
v -0.624408 4.325269 1.645216
v -1.284672 3.401439 7.048606
v -0.508975 2.280745 8.228606
v -0.500059 0.005075 7.072206
v -0.387908 2.709349 1.630392
v -1.000059 0.007092 3.531744
v -1.000059 -0.010055 2.964405
v -0.610815 -0.010055 2.938174
v -0.496517 0.005075 6.272206
v -0.497741 0.005075 7.072206
v -0.903016 0.005075 6.325642
v -0.938941 0.005075 6.899980
v -0.500059 0.005075 6.272206
v -1.200254 4.538807 2.891854
v -0.000060 2.111314 8.228606
v -0.000060 2.868554 0.926317
v -0.337525 2.762545 0.944118
v -0.337525 2.455455 0.795827
v -0.000060 3.021717 0.390480
v -0.260285 2.928888 0.336282
v -0.260285 2.815815 0.194184
v -0.000060 3.365749 0.020222
v -0.181845 3.253095 -0.058003
v -0.000060 2.111314 8.228606
v -0.000060 2.111314 8.228606
v -0.000060 1.656314 8.033607
v -0.000060 2.111314 8.228606
v -0.000060 2.111314 8.228606
v -0.000060 2.111314 8.228606
v -0.000060 1.656314 8.033607
v -0.000060 2.111314 8.228606
v -0.000060 2.111314 8.228606
v -0.000060 1.656314 8.033607
v -0.000060 1.656314 8.033607
v -0.000060 1.656314 8.033607
v -0.000060 2.111314 8.228606
v -0.000060 2.111314 8.228606
v -0.000060 1.656314 8.033607
v -0.000060 1.656314 8.033607
v -0.000060 1.656314 8.033607
v -0.000060 1.656314 8.033607
v -0.000060 1.656314 8.033607
v -0.000060 1.656314 8.033607
v -0.000060 2.111314 8.228606
v -0.000060 2.111314 8.228606
v -0.000060 1.656314 8.033607
v -0.000060 1.327507 8.344659
v -1.660207 3.684506 3.504615
v -1.660207 4.684656 3.364615
v -1.913221 4.684656 3.364615
v -0.000060 3.365749 0.020222
v -0.181845 3.253095 -0.058003
v -0.424469 3.405431 -0.449297
v -0.424469 3.405431 0.388408
v 0.413235 3.405431 -0.449297
v 0.413235 3.405431 0.388408
v -0.424469 3.549946 0.388408
v -0.424469 3.549946 -0.449297
v 0.413235 3.549946 -0.449297
v 0.413235 3.549946 0.388408
v -0.279126 4.115728 0.243065
v -0.279126 4.115728 -0.303954
v 0.267893 4.115728 0.243065
v 0.267893 4.115728 -0.303954
v -0.279126 4.206454 0.243065
v -0.279126 4.206454 -0.303954
v 0.267893 4.206454 -0.303954
v 0.267893 4.206454 0.243065
v 0.267893 4.115728 -0.303954
v 0.267893 4.115728 0.243065
v 0.267893 4.206454 -0.303954
v 0.267893 4.206454 0.243065
v -0.279126 4.115728 -0.431433
v 0.267893 4.115728 -0.431433
v -0.279126 4.206454 -0.431433
v 0.267893 4.206454 -0.431433
v 0.377900 4.115728 -0.303954
v 0.377900 4.115728 0.243065
v 0.377900 4.206454 -0.303954
v 0.377900 4.206454 0.243065
v 0.267893 4.115728 0.360581
v -0.279126 4.115728 0.360581
v 0.267893 4.206454 0.360581
v -0.279126 4.206454 0.360581
v -0.402895 4.115728 0.243065
v -0.402895 4.115728 -0.303954
v -0.402895 4.206454 0.243065
v -0.402895 4.206454 -0.303954
vt 0.122829 0.870910
vt 0.111337 0.937520
vt 0.111337 0.870866
vt 0.442277 0.872306
vt 0.430794 0.939043
vt 0.430794 0.872306
vt 0.233833 0.913348
vt 0.245322 0.846618
vt 0.245322 0.913317
vt 0.592762 0.887738
vt 0.583091 0.954475
vt 0.583091 0.887738
vt 0.743218 0.949447
vt 0.729273 0.924385
vt 0.743218 0.924385
vt 0.827956 0.947126
vt 0.865816 0.903547
vt 0.865816 0.947126
vt 0.752217 0.903547
vt 0.797170 0.595916
vt 0.868016 0.886182
vt 0.348655 0.091870
vt 0.195475 0.103631
vt 0.341689 0.046595
vt 0.431148 0.706751
vt 0.351395 0.762997
vt 0.348655 0.706751
vt 0.583091 0.887738
vt 0.583091 0.974589
vt 0.513641 0.926902
vt 0.958231 0.945659
vt 0.918354 0.854705
vt 0.918637 0.854705
vt 0.148622 0.248656
vt 0.000000 0.192659
vt 0.144119 0.126029
vt 0.898379 0.783265
vt 0.893929 0.728517
vt 0.919316 0.777496
vt 0.782638 0.545297
vt 0.704286 0.502395
vt 0.739726 0.456003
vt 0.715236 0.562272
vt 0.513641 0.638527
vt 0.690211 0.548410
vt 0.690211 0.638527
vt 0.245613 0.699378
vt 0.180971 0.548708
vt 0.225742 0.558083
vt 0.382438 0.548590
vt 1.000000 0.000000
vt 1.000000 0.113479
vt 0.940610 0.058484
vt 0.977430 0.597519
vt 0.929831 0.559307
vt 0.959598 0.536364
vt 0.977701 0.597440
vt 0.959776 0.536312
vt 0.160552 0.427246
vt 0.082770 0.494736
vt 0.070555 0.450563
vt 0.073449 0.891414
vt 0.108903 0.886521
vt 0.108903 0.987066
vt 0.000000 0.784303
vt 0.096980 0.731323
vt 0.096980 0.886521
vt 0.398448 0.853569
vt 0.448242 0.764998
vt 0.441191 0.872306
vt 0.697295 0.612887
vt 0.348655 0.435252
vt 0.282026 0.548708
vt 0.896358 0.592529
vt 0.873632 0.641730
vt 0.869418 0.592650
vt 0.396412 0.945905
vt 0.363704 0.914740
vt 0.391920 0.915853
vt 0.473505 0.762997
vt 0.484341 0.822177
vt 0.448242 0.829091
vt 0.898328 0.525569
vt 0.868016 0.526778
vt 0.493829 0.865535
vt 0.510017 0.905341
vt 0.473654 0.880770
vt 0.868016 0.720609
vt 0.899137 0.678511
vt 0.377065 0.872306
vt 0.398618 0.878597
vt 0.224903 0.732414
vt 0.244777 0.764569
vt 0.231124 0.770961
vt 0.870028 0.987097
vt 0.907698 0.967651
vt 0.906698 0.982108
vt 0.196701 0.024450
vt 0.302372 0.000000
vt 0.431148 0.762997
vt 0.513641 0.555221
vt 0.809495 0.225976
vt 0.787287 0.050272
vt 0.889309 0.146828
vt 0.902539 0.854338
vt 0.868016 0.945659
vt 0.013140 0.235900
vt 0.398448 0.762997
vt 0.886217 0.854338
vt 0.901786 0.456003
vt 0.749427 0.064893
vt 0.059390 0.969582
vt 0.983030 0.910826
vt 0.958231 0.892057
vt 0.983030 0.854338
vt 0.122829 0.699378
vt 0.351395 0.548410
vt 0.945384 0.602411
vt 0.977701 0.456003
vt 0.041882 0.699355
vt 0.894337 0.643376
vt 0.348655 0.969079
vt 0.510017 0.799854
vt 0.888538 0.668713
vt 0.000000 0.000000
vt 0.000000 0.000000
vt 0.000000 0.000000
vt 0.919316 0.643376
vt 0.244777 0.725308
vt 0.868016 0.966284
vt 0.000000 0.000000
vt 0.000000 0.000000
vt 0.000000 0.000000
vt 0.000000 0.000000
vt 0.000000 0.000000
vt 0.000000 0.000000
vt 0.203799 0.821790
vt 0.225873 0.770961
vt 0.225873 0.850294
vt 0.233510 0.944399
vt 0.213044 0.900560
vt 0.233510 0.870866
vt 0.000000 0.000000
vt 0.000000 0.000000
vt 0.725228 0.000000
vt 0.696516 0.848893
vt 0.683662 0.743144
vt 0.696516 0.728644
vt 0.225873 0.841248
vt 0.245322 0.770961
vt 0.245322 0.846618
vt 0.327368 0.735608
vt 0.245613 0.824765
vt 0.249130 0.744576
vt 0.959899 0.643376
vt 0.959899 0.823629
vt 0.919316 0.752663
vt 0.600918 0.728644
vt 0.600918 0.887738
vt 0.513641 0.876317
vt 0.000000 0.000000
vt 0.000000 0.000000
vt 0.697295 0.218275
vt 0.889309 0.440011
vt 0.697295 0.455890
vt 0.690292 0.501644
vt 0.544111 0.444178
vt 0.513641 0.706751
vt 0.510901 0.762997
vt 0.670369 0.974576
vt 0.600918 0.935412
vt 0.670369 0.887724
vt 0.122829 0.962186
vt 0.162423 0.871233
vt 0.162706 0.871232
vt 0.497264 0.299075
vt 0.492763 0.421671
vt 0.348655 0.354905
vt 0.919679 0.070531
vt 0.940610 0.076136
vt 0.915225 0.125311
vt 0.793096 0.466808
vt 0.830474 0.516096
vt 0.690211 0.728644
vt 0.000000 0.699355
vt 0.018779 0.558104
vt 0.064085 0.548708
vt 0.479857 0.548590
vt 0.059390 1.000000
vt 0.000000 0.941516
vt 0.059390 0.886521
vt 0.977619 0.215543
vt 0.959788 0.276698
vt 0.930021 0.253755
vt 0.977891 0.215622
vt 0.959966 0.276750
vt 0.509197 0.120449
vt 0.419186 0.097308
vt 0.431403 0.053121
vt 0.259671 0.990324
vt 0.295125 0.894672
vt 0.295125 0.995217
vt 0.245613 0.650723
vt 0.342990 0.548708
vt 0.342990 0.703766
vt 0.355706 0.872306
vt 0.348655 0.764998
vt 0.868016 0.544479
vt 0.000000 0.000000
vt 0.697295 0.112510
vt 0.630594 0.000000
vt 0.923204 0.594784
vt 0.915107 0.643376
vt 0.415425 0.914740
vt 0.889309 0.455574
vt 0.918626 0.391091
vt 0.939063 0.421613
vt 0.899710 0.525624
vt 0.929831 0.529230
vt 0.889309 0.133178
vt 0.920430 0.175401
vt 0.219571 0.699378
vt 0.203799 0.731907
vt 0.216151 0.769179
vt 0.871459 0.945659
vt 0.907698 0.953160
vt 0.793128 0.456003
vt 0.650962 0.548410
vt 0.545293 0.523935
vt 0.513641 0.721833
vt 0.711217 0.078577
vt 0.923866 0.000000
vt 0.213044 0.962186
vt 0.361792 0.311697
vt 0.194843 0.870866
vt 0.245613 0.912156
vt 0.958231 0.967313
vt 0.958231 0.910826
vt 0.983030 0.948544
vt 0.510901 0.548410
vt 0.945573 0.210651
vt 0.977891 0.357059
vt 0.287767 0.735608
vt 0.430794 0.969079
vt 0.941207 0.455574
vt 0.909830 0.185179
vt 0.416948 0.872306
vt 0.000000 0.000000
vt 0.000000 0.000000
vt 0.940610 0.210651
vt 0.000000 0.000000
vt 0.000000 0.000000
vt 0.000000 0.000000
vt 0.117594 0.788859
vt 0.117714 0.851812
vt 0.096980 0.822320
vt 0.000000 0.000000
vt 0.000000 0.000000
vt 0.000000 0.000000
vt 0.000000 0.000000
vt 0.000000 0.000000
vt 0.000000 0.000000
vt 0.000000 0.000000
vt 0.000000 0.000000
vt 0.000000 0.000000
vt 0.000000 0.000000
vt 0.000000 0.000000
vt 0.000000 0.000000
vt 0.000000 0.000000
vt 0.000000 0.000000
vt 0.000000 0.000000
vt 0.000000 0.000000
vt 0.096980 0.727712
vt 0.119264 0.699355
vt 0.119264 0.778528
vt 0.117714 0.778528
vt 0.000000 0.000000
vt 0.968477 0.643376
vt 0.968477 0.725086
vt 0.959899 0.662719
vt 0.341153 0.735608
vt 0.341153 0.847729
vt 0.327368 0.834110
vt 0.670369 0.893094
vt 0.689818 0.887724
vt 0.689818 0.963381
vt 0.683662 0.887724
vt 0.600918 0.798238
vt 0.683662 0.728644
vt 0.930021 0.391091
vt 0.889309 0.281459
vt 0.930021 0.210651
vt 0.203799 0.699378
vt 0.203799 0.870866
vt 0.122829 0.836378
vt 0.764066 0.903547
vt 0.764066 0.970284
vt 0.729273 0.949447
vt 0.697295 0.970284
vt 0.697295 0.903547
vt 0.340822 0.862211
vt 0.344967 0.876693
vt 0.336735 0.874299
vt 0.344967 0.847729
vt 0.336735 0.849237
vt 0.216292 0.863663
vt 0.203799 0.863663
vt 0.207681 0.850294
vt 0.216292 0.856948
vt 0.226776 0.850294
vt 0.226776 0.866132
vt 0.696657 0.848893
vt 0.696157 0.863376
vt 0.683662 0.851287
vt 0.696657 0.877858
vt 0.683662 0.876349
vt 0.775151 0.915611
vt 0.827956 0.908953
vt 0.816871 0.919141
vt 0.775151 0.957484
vt 0.764066 0.903547
vt 0.816871 0.961014
vt 0.764066 0.967672
vt 0.827956 0.973078
vt 0.000000 0.000000
vt 0.000000 0.000000
vt 0.000000 0.000000
vt 0.941207 0.435997
vt 0.984833 0.391091
vt 0.984833 0.435997
vt 0.940610 0.203520
vt 0.984211 0.158706
vt 0.984211 0.203637
vt 0.940610 0.158588
vt 0.984182 0.113479
vt 0.984182 0.158422
vt 0.304576 0.949015
vt 0.346345 0.903657
vt 0.346345 0.945481
vt 0.295125 0.907991
vt 0.304576 0.907191
vt 0.241046 0.956606
vt 0.233833 0.965982
vt 0.233833 0.956625
vt 0.593514 0.897881
vt 0.600690 0.887738
vt 0.600728 0.897881
vt 0.696282 0.651213
vt 0.690211 0.642449
vt 0.696282 0.642449
vt 0.000000 0.000000
vt 0.000000 0.000000
vt 0.000000 0.000000
vt 0.000000 0.000000
vt 0.000000 0.000000
vt 0.348362 0.779187
vt 0.341153 0.735608
vt 0.348362 0.735608
vt 0.304576 0.958762
vt 0.458113 0.915491
vt 0.501740 0.905341
vt 0.501740 0.915491
vt 0.341153 0.810090
vt 0.348366 0.799921
vt 0.348366 0.810071
vt 0.234530 0.913367
vt 0.241743 0.956902
vt 0.234530 0.956921
vt 0.501740 0.914326
vt 0.510139 0.955439
vt 0.501740 0.956150
vt 0.341153 0.838092
vt 0.348362 0.829328
vt 0.348362 0.838092
vt 0.959899 0.735236
vt 0.968672 0.778790
vt 0.959899 0.778790
vt 0.696282 0.591989
vt 0.690211 0.548410
vt 0.696282 0.548410
vt 0.346345 0.894672
vt 0.327368 0.847729
vt 0.336735 0.891308
vt 0.327368 0.891308
vt 0.341153 0.829301
vt 0.348368 0.819978
vt 0.348368 0.829328
vt 0.600143 0.941898
vt 0.592762 0.898373
vt 0.599976 0.898373
vt 0.348362 0.810090
vt 0.341153 0.819951
vt 0.341153 0.810090
vt 0.458113 0.959045
vt 0.448242 0.915491
vt 0.690211 0.632589
vt 0.696282 0.642449
vt 0.690211 0.642449
vt 0.501740 0.905341
vt 0.510139 0.913615
vt 0.959899 0.788147
vt 0.241046 0.965963
vt 0.959899 0.725086
vt 0.968672 0.735236
vt 0.690211 0.613265
vt 0.696851 0.605583
vt 0.696851 0.618993
vt 0.348349 0.799921
vt 0.341153 0.789667
vt 0.348349 0.790190
vt 0.295125 0.949815
vt 0.458113 0.905341
vt 0.697006 0.605583
vt 0.690211 0.598430
vt 0.697006 0.591989
vt 0.690211 0.626123
vt 0.696456 0.618993
vt 0.696456 0.632589
vt 0.348338 0.789080
vt 0.341153 0.779773
vt 0.348338 0.779187
vt 0.122829 0.937564
vt 0.442277 0.939043
vt 0.233833 0.846649
vt 0.592762 0.954475
vt 0.827956 0.903547
vt 0.327368 0.894672
vt 0.604320 0.878402
vt 0.941207 0.391091
vt 0.940610 0.158588
vt 0.940610 0.113646
vt 0.593475 0.887738
vt 0.690211 0.651213
vt 0.341153 0.779187
vt 0.346345 0.955228
vt 0.341153 0.799940
vt 0.241743 0.913348
vt 0.341153 0.829328
vt 0.690211 0.591989
vt 0.304576 0.898206
vt 0.336735 0.847729
vt 0.341153 0.819950
vt 0.592928 0.941898
vt 0.348362 0.819951
vt 0.448242 0.959045
vt 0.696282 0.632589
vt 0.341153 0.799398
vt 0.341153 0.789667
vn -1.0000 0.0000 0.0000
vn 0.0000 0.0000 -1.0000
vn 1.0000 0.0000 0.0000
vn 0.0000 0.0000 1.0000
vn 0.0000 -1.0000 0.0000
vn 0.5184 0.8412 0.1537
vn 0.8212 0.0212 -0.5702
vn 0.0000 -0.1414 -0.9899
vn 0.0000 -0.9488 -0.3157
vn 0.0000 0.0533 -0.9986
vn 0.9997 -0.0195 -0.0121
vn 0.8578 -0.5037 -0.1020
vn 0.2912 0.8248 -0.4846
vn 0.3765 0.9249 0.0536
vn 0.0000 -0.9797 -0.2004
vn -0.6679 -0.5889 0.4550
vn 0.0000 -0.1531 -0.9882
vn 0.0000 -0.3522 0.9359
vn 0.9792 -0.1937 -0.0612
vn 0.3300 -0.4287 0.8410
vn -0.9351 -0.3401 0.1000
vn 0.5632 -0.0057 -0.8263
vn 0.2985 0.9533 -0.0453
vn 0.8936 -0.1905 0.4065
vn 0.9974 -0.0524 -0.0495
vn 0.0661 -0.8523 -0.5189
vn 0.2502 0.6807 -0.6885
vn -0.9999 -0.0029 0.0111
vn 0.0793 -0.9550 0.2858
vn 0.9923 0.0538 -0.1114
vn 0.3716 0.8927 0.2552
vn 0.5984 0.5869 0.5454
vn 0.1696 -0.4694 -0.8666
vn 0.3252 0.9138 0.2434
vn 0.9061 -0.0159 -0.4227
vn 0.8903 -0.0410 -0.4535
vn 0.3864 0.5285 0.7559
vn 0.8378 -0.4315 0.3344
vn 0.9996 -0.0289 0.0009
vn 0.9969 0.0341 -0.0705
vn 0.5291 0.0208 -0.8483
vn 0.3233 0.8276 -0.4589
vn 0.1314 -0.0192 -0.9911
vn 0.0569 -0.9978 -0.0341
vn 0.2460 0.5241 0.8153
vn 0.2104 -0.4435 0.8712
vn -0.0020 -0.9995 0.0302
vn -0.9494 -0.3059 -0.0714
vn 0.0663 -0.1667 -0.9838
vn 0.9494 -0.0040 0.3141
vn 0.0000 -0.5032 0.8642
vn -0.9182 -0.3960 0.0014
vn 0.9978 -0.0619 -0.0220
vn 0.9968 -0.0691 -0.0392
vn 0.1385 -0.8591 -0.4927
vn 0.5528 0.7307 -0.4006
vn -0.9999 -0.0094 0.0095
vn 0.1092 -0.9491 0.2956
vn 0.9932 0.0914 -0.0727
vn 0.2818 0.9340 0.2198
vn 0.9879 0.1215 -0.0967
vn 0.3803 0.7501 0.5411
vn 0.1062 -0.5016 -0.8586
vn 0.7464 -0.4573 -0.4835
vn -0.7464 0.4573 0.4834
vn 0.2036 0.0105 0.9790
vn 0.9561 0.0628 -0.2863
vn 0.0000 0.9988 -0.0487
vn 0.0000 0.1386 0.9903
vn -0.7707 0.0883 0.6311
vn 0.9051 -0.2744 -0.3248
vn 0.6830 -0.0083 -0.7303
vn -0.5184 0.8412 0.1537
vn -0.8212 0.0212 -0.5702
vn -0.9997 -0.0195 -0.0121
vn -0.8578 -0.5037 -0.1020
vn -0.2912 0.8248 -0.4846
vn -0.3765 0.9249 0.0536
vn 0.6679 -0.5889 0.4550
vn -0.9792 -0.1937 -0.0612
vn -0.3300 -0.4287 0.8410
vn 0.9351 -0.3401 0.1000
vn -0.5632 -0.0057 -0.8263
vn -0.2985 0.9533 -0.0453
vn -0.8936 -0.1905 0.4065
vn -0.9974 -0.0524 -0.0495
vn -0.0661 -0.8523 -0.5189
vn -0.2502 0.6807 -0.6885
vn 0.9999 -0.0029 0.0111
vn -0.0793 -0.9550 0.2858
vn -0.9923 0.0538 -0.1114
vn -0.3716 0.8927 0.2552
vn -0.5984 0.5869 0.5454
vn -0.1696 -0.4694 -0.8666
vn -0.3252 0.9138 0.2434
vn -0.9061 -0.0159 -0.4227
vn -0.8903 -0.0410 -0.4535
vn -0.3864 0.5285 0.7559
vn -0.8378 -0.4315 0.3344
vn -0.9996 -0.0289 0.0009
vn -0.9969 0.0341 -0.0705
vn -0.5291 0.0208 -0.8483
vn -0.3233 0.8276 -0.4589
vn -0.1314 -0.0192 -0.9911
vn -0.0569 -0.9978 -0.0341
vn -0.2460 0.5241 0.8153
vn -0.2104 -0.4435 0.8712
vn 0.0020 -0.9995 0.0302
vn 0.9494 -0.3059 -0.0714
vn -0.0663 -0.1667 -0.9838
vn -0.9494 -0.0040 0.3141
vn 0.9182 -0.3960 0.0014
vn -0.9978 -0.0619 -0.0220
vn -0.9968 -0.0691 -0.0392
vn -0.1385 -0.8591 -0.4927
vn -0.5528 0.7307 -0.4006
vn 0.9999 -0.0094 0.0095
vn -0.1092 -0.9491 0.2956
vn -0.9932 0.0914 -0.0727
vn -0.2818 0.9340 0.2198
vn -0.9879 0.1215 -0.0967
vn -0.3803 0.7501 0.5411
vn -0.1062 -0.5016 -0.8586
vn -0.7464 -0.4573 -0.4834
vn 0.7464 0.4573 0.4834
vn -0.2036 0.0105 0.9790
vn -0.9561 0.0628 -0.2863
vn 0.8168 -0.0201 0.5766
vn -0.9051 -0.2744 -0.3248
vn -0.6830 -0.0083 -0.7303
vn 0.2632 -0.2264 0.9378
vn -0.2499 -0.2468 0.9363
vn 0.0000 0.6395 0.7688
vn -0.9924 0.1234 0.0000
vn 0.9811 0.1935 0.0000
vn 0.1466 -0.6244 -0.7672
vn -0.1454 -0.6309 -0.7621
vn 0.0000 -0.5268 -0.8500
vn 0.0000 1.0000 0.0000
vn 0.7300 0.0000 0.6834
vn -0.7571 0.0000 0.6533
vn -0.7175 0.0000 -0.6966
vn 0.6886 0.0000 -0.7252
vn -0.8168 -0.0201 0.5766
vn 0.7707 0.0883 0.6311
vn 0.6885 0.0000 -0.7252
s off
f 116/1/1 112/2/1 113/3/1
f 117/4/2 114/5/2 112/6/2
f 118/7/3 115/8/3 114/9/3
f 119/10/4 113/11/4 115/12/4
f 7/13/5 1/14/5 3/15/5
f 2/16/4 122/17/4 120/18/4
f 17/19/6 44/20/6 42/21/6
f 29/22/7 13/23/7 14/24/7
f 45/25/8 13/26/8 12/27/8
f 47/28/9 15/29/9 13/30/9
f 43/31/10 28/32/10 24/33/10
f 11/34/11 22/35/11 12/36/11
f 20/37/12 31/38/12 15/39/12
f 46/40/13 16/41/13 48/42/13
f 44/20/14 14/43/14 46/40/14
f 51/44/15 10/45/15 43/46/15
f 51/47/16 23/48/16 21/49/16
f 12/27/17 23/50/17 45/25/17
f 51/51/18 21/52/18 11/53/18
f 28/54/5 27/55/5 19/56/5
f 24/57/5 19/56/5 25/58/5
f 10/59/19 27/60/19 26/61/19
f 19/62/20 27/63/20 18/64/20
f 43/65/21 25/66/21 53/67/21
f 50/68/22 16/69/22 15/70/22
f 29/71/23 14/43/23 44/20/23
f 17/72/24 18/73/24 10/59/24
f 17/72/25 10/59/25 11/34/25
f 30/74/26 35/75/26 32/76/26
f 50/77/27 31/78/27 75/79/27
f 9/80/28 75/81/28 30/82/28
f 9/83/29 32/76/29 20/84/29
f 78/85/1 36/86/1 33/87/1
f 75/81/1 33/87/1 30/82/1
f 32/88/30 34/89/30 31/38/30
f 75/79/31 34/90/31 78/91/31
f 78/92/32 37/93/32 81/94/32
f 35/95/33 36/96/33 37/97/33
f 17/19/34 29/71/34 44/20/34
f 29/22/35 12/36/35 13/23/35
f 13/23/36 15/98/36 16/99/36
f 45/25/8 47/100/8 13/26/8
f 51/44/15 11/101/15 10/45/15
f 42/102/37 18/103/37 17/104/37
f 47/105/38 20/37/38 15/39/38
f 43/31/10 10/106/10 28/32/10
f 11/34/39 21/107/39 22/35/39
f 20/37/40 32/88/40 31/38/40
f 50/68/41 48/108/41 16/69/41
f 46/40/42 14/43/42 16/41/42
f 10/106/43 26/109/43 28/32/43
f 47/110/44 9/83/44 20/84/44
f 52/111/45 18/103/45 42/102/45
f 53/112/46 19/62/46 18/64/46
f 23/113/47 22/114/47 21/115/47
f 51/47/48 45/116/48 23/48/48
f 12/27/49 22/117/49 23/50/49
f 28/54/5 26/118/5 27/55/5
f 24/57/5 28/54/5 19/56/5
f 10/59/50 18/73/50 27/60/50
f 53/119/51 25/58/51 19/56/51
f 43/65/52 24/120/52 25/66/52
f 12/36/53 29/22/53 11/34/53
f 29/22/54 17/72/54 11/34/54
f 30/74/55 33/121/55 35/75/55
f 50/77/56 15/122/56 31/78/56
f 9/80/57 50/123/57 75/81/57
f 9/83/58 30/74/58 32/76/58
f 75/81/1 78/85/1 33/87/1
f 32/88/59 35/124/59 34/89/59
f 75/79/60 31/78/60 34/90/60
f 37/125/4 36/126/4 41/127/4
f 34/89/61 35/124/61 37/128/61
f 78/92/62 34/129/62 37/93/62
f 35/95/63 33/130/63 36/96/63
f 18/131/4 84/132/4 88/133/4
f 18/131/4 88/133/4 91/134/4
f 18/131/4 91/134/4 96/135/4
f 18/131/4 96/135/4 104/136/4
f 105/137/64 18/138/64 106/139/64
f 18/140/65 85/141/65 106/142/65
f 53/143/4 18/131/4 105/144/4
f 106/145/66 18/103/66 52/111/66
f 13/23/67 16/99/67 14/24/67
f 14/146/68 39/147/68 40/148/68
f 39/149/69 38/150/69 40/151/69
f 14/152/70 38/153/70 39/154/70
f 13/155/71 40/156/71 38/157/71
f 13/158/72 14/159/72 40/160/72
f 81/161/4 41/127/4 110/162/4
f 36/126/4 81/161/4 110/162/4
f 61/163/73 42/102/73 44/164/73
f 73/165/74 58/166/74 57/167/74
f 45/25/8 56/168/8 57/169/8
f 47/170/9 57/171/9 59/172/9
f 43/173/10 68/174/10 72/175/10
f 55/176/75 56/177/75 66/178/75
f 64/179/76 59/180/76 76/181/76
f 46/40/77 48/42/77 60/182/77
f 44/20/78 46/40/78 58/183/78
f 51/44/15 43/46/15 54/184/15
f 51/185/79 65/186/79 67/187/79
f 56/168/17 45/25/17 67/188/17
f 51/189/18 55/190/18 65/191/18
f 72/192/5 63/193/5 71/194/5
f 68/195/5 69/196/5 63/193/5
f 54/197/80 70/198/80 71/199/80
f 63/200/81 62/201/81 71/202/81
f 43/203/82 53/204/82 69/205/82
f 50/68/83 59/206/83 60/207/83
f 73/208/84 44/20/84 58/183/84
f 85/209/4 105/144/4 53/143/4
f 61/210/85 54/197/85 62/211/85
f 61/210/86 55/176/86 54/197/86
f 30/74/87 77/212/87 80/213/87
f 50/77/88 75/79/88 76/214/88
f 49/215/89 30/216/89 75/217/89
f 49/218/90 64/219/90 77/212/90
f 77/220/91 76/181/91 79/221/91
f 75/222/92 78/92/92 79/223/92
f 78/92/93 81/94/93 82/224/93
f 80/225/94 82/226/94 36/96/94
f 61/163/95 44/164/95 73/227/95
f 73/165/96 57/167/96 56/177/96
f 57/167/97 60/228/97 59/229/97
f 45/25/8 57/169/8 47/100/8
f 51/44/15 54/184/15 55/230/15
f 42/102/98 61/163/98 62/231/98
f 47/232/99 59/180/99 64/179/99
f 43/173/10 72/175/10 54/233/10
f 55/176/100 66/178/100 65/234/100
f 64/179/101 76/181/101 77/220/101
f 50/68/102 60/207/102 48/108/102
f 46/40/103 60/182/103 58/183/103
f 54/233/104 72/175/104 70/235/104
f 47/110/105 64/219/105 49/218/105
f 52/111/106 42/102/106 62/231/106
f 53/236/107 62/201/107 63/200/107
f 67/237/108 65/238/108 66/239/108
f 51/185/109 67/187/109 45/116/109
f 56/168/110 67/188/110 66/240/110
f 72/192/5 71/194/5 70/241/5
f 68/195/5 63/193/5 72/192/5
f 54/197/111 71/199/111 62/211/111
f 53/242/51 63/193/51 69/196/51
f 43/203/112 69/205/112 68/243/112
f 56/177/113 55/176/113 73/165/113
f 73/165/114 55/176/114 61/210/114
f 30/74/115 80/213/115 33/121/115
f 50/77/116 76/214/116 59/244/116
f 49/215/117 75/217/117 50/245/117
f 49/218/118 77/212/118 30/74/118
f 77/220/119 79/221/119 80/246/119
f 75/79/120 79/247/120 76/214/120
f 82/248/4 111/249/4 36/126/4
f 79/221/121 82/250/121 80/246/121
f 78/92/122 82/224/122 79/223/122
f 80/225/123 36/96/123 33/130/123
f 83/251/4 84/132/4 74/252/4
f 52/253/4 83/251/4 74/252/4
f 84/254/3 106/255/3 85/256/3
f 52/253/4 86/257/4 83/251/4
f 74/252/4 85/209/4 53/143/4
f 62/258/4 88/133/4 84/132/4
f 74/252/4 87/259/4 52/253/4
f 74/252/4 88/133/4 84/132/4
f 87/259/4 91/134/4 88/133/4
f 62/258/4 91/134/4 88/133/4
f 87/259/4 90/260/4 52/253/4
f 92/261/4 101/262/4 93/263/4
f 62/258/4 96/135/4 91/134/4
f 90/260/4 95/264/4 52/253/4
f 90/260/4 96/135/4 91/134/4
f 95/264/4 103/265/4 52/253/4
f 98/266/4 100/267/4 97/268/4
f 97/268/4 102/269/4 99/270/4
f 94/271/4 100/267/4 92/261/4
f 85/209/4 97/268/4 53/143/4
f 95/264/4 104/136/4 96/135/4
f 62/258/4 104/136/4 96/135/4
f 93/263/4 98/266/4 85/209/4
f 89/272/4 102/269/4 94/271/4
f 53/143/4 99/270/4 89/272/4
f 105/273/124 106/274/124 62/275/124
f 62/276/125 106/255/125 85/256/125
f 53/143/4 105/144/4 62/258/4
f 106/145/126 52/111/126 62/231/126
f 86/257/4 106/277/4 84/132/4
f 52/278/3 106/279/3 86/280/3
f 57/167/127 58/166/127 60/228/127
f 58/281/68 109/282/68 108/283/68
f 108/284/69 109/285/69 107/286/69
f 58/287/128 107/288/128 57/289/128
f 57/290/129 107/291/129 109/292/129
f 57/293/130 109/294/130 58/295/130
f 81/161/4 111/249/4 82/248/4
f 1/14/5 112/296/5 3/15/5
f 3/15/5 114/297/5 7/13/5
f 5/298/5 114/297/5 115/299/5
f 5/298/5 113/300/5 1/14/5
f 110/301/131 41/302/131 5/303/131
f 111/304/132 110/301/132 1/305/132
f 1/305/133 110/301/133 5/303/133
f 111/306/134 1/307/134 3/308/134
f 5/309/135 41/310/135 7/311/135
f 41/312/136 36/313/136 7/314/136
f 111/315/137 3/316/137 36/313/137
f 36/313/138 3/316/138 7/314/138
f 4/317/139 116/318/139 2/319/139
f 8/320/139 117/321/139 4/317/139
f 6/322/139 118/323/139 8/320/139
f 2/319/139 119/324/139 6/322/139
f 126/325/4 131/326/4 130/327/4
f 4/328/2 123/329/2 8/330/2
f 8/331/3 122/332/3 6/333/3
f 2/334/1 121/335/1 4/336/1
f 125/337/139 127/338/139 126/339/139
f 125/337/139 146/340/139 124/341/139
f 127/342/3 140/343/3 122/344/3
f 125/345/1 132/346/1 121/347/1
f 131/348/4 137/349/4 139/350/4
f 122/351/4 128/352/4 129/353/4
f 127/354/4 129/353/4 131/326/4
f 123/355/4 130/327/4 128/352/4
f 132/356/2 135/357/2 133/358/2
f 126/339/139 134/359/139 125/337/139
f 121/360/5 133/361/5 123/362/5
f 123/363/3 135/364/3 126/365/3
f 136/366/3 139/367/3 137/368/3
f 131/369/139 138/370/139 130/371/139
f 130/372/2 136/373/2 128/374/2
f 128/375/5 137/376/5 129/377/5
f 140/378/4 143/379/4 141/380/4
f 124/341/139 142/381/139 127/338/139
f 122/382/5 141/383/5 120/384/5
f 120/385/1 143/386/1 124/387/1
f 144/388/1 147/389/1 145/390/1
f 121/391/2 147/392/2 125/393/2
f 120/394/5 145/395/5 121/360/5
f 120/396/4 146/397/4 144/398/4
f 131/369/139 142/399/139 139/400/139
f 140/401/5 129/377/5 137/376/5
f 142/402/140 137/368/140 139/367/140
f 128/375/5 133/403/5 136/404/5
f 130/405/5 135/406/5 138/407/5
f 136/408/141 135/409/141 133/410/141
f 125/337/139 134/359/139 147/411/139
f 132/412/5 121/360/5 145/395/5
f 147/389/142 132/346/142 145/390/142
f 146/413/5 124/414/5 143/415/5
f 120/416/139 144/417/139 141/418/139
f 144/419/143 143/420/143 141/421/143
f 116/1/1 117/422/1 112/2/1
f 117/4/2 118/423/2 114/5/2
f 118/7/3 119/424/3 115/8/3
f 119/10/4 116/425/4 113/11/4
f 7/13/5 5/298/5 1/14/5
f 2/16/4 6/426/4 122/17/4
f 14/152/144 13/427/144 38/153/144
f 81/161/4 37/125/4 41/127/4
f 85/209/4 106/277/4 105/144/4
f 83/251/4 86/257/4 84/132/4
f 74/252/4 84/132/4 85/209/4
f 74/252/4 87/259/4 88/133/4
f 87/259/4 90/260/4 91/134/4
f 92/261/4 100/267/4 101/262/4
f 90/260/4 95/264/4 96/135/4
f 98/266/4 101/262/4 100/267/4
f 97/268/4 100/267/4 102/269/4
f 94/271/4 102/269/4 100/267/4
f 85/209/4 98/266/4 97/268/4
f 95/264/4 103/265/4 104/136/4
f 93/263/4 101/262/4 98/266/4
f 89/272/4 99/270/4 102/269/4
f 53/143/4 97/268/4 99/270/4
f 58/287/145 108/428/145 107/288/145
f 81/161/4 110/162/4 111/249/4
f 1/14/5 113/300/5 112/296/5
f 3/15/5 112/296/5 114/297/5
f 5/298/5 7/13/5 114/297/5
f 5/298/5 115/299/5 113/300/5
f 4/317/139 117/321/139 116/318/139
f 8/320/139 118/323/139 117/321/139
f 6/322/139 119/324/139 118/323/139
f 2/319/139 116/318/139 119/324/139
f 126/325/4 127/354/4 131/326/4
f 4/328/2 121/429/2 123/329/2
f 8/331/3 123/430/3 122/332/3
f 2/334/1 120/431/1 121/335/1
f 125/337/139 124/341/139 127/338/139
f 125/337/139 147/411/139 146/340/139
f 127/342/3 142/402/3 140/343/3
f 125/345/1 134/432/1 132/346/1
f 131/348/4 129/433/4 137/349/4
f 122/351/4 123/355/4 128/352/4
f 127/354/4 122/351/4 129/353/4
f 123/355/4 126/325/4 130/327/4
f 132/356/2 134/434/2 135/357/2
f 126/339/139 135/435/139 134/359/139
f 121/360/5 132/412/5 133/361/5
f 123/363/3 133/436/3 135/364/3
f 136/366/3 138/437/3 139/367/3
f 131/369/139 139/400/139 138/370/139
f 130/372/2 138/438/2 136/373/2
f 128/375/5 136/404/5 137/376/5
f 140/378/4 142/439/4 143/379/4
f 124/341/139 143/440/139 142/381/139
f 122/382/5 140/441/5 141/383/5
f 120/385/1 141/442/1 143/386/1
f 144/388/1 146/443/1 147/389/1
f 121/391/2 145/444/2 147/392/2
f 120/394/5 144/445/5 145/395/5
f 120/396/4 124/446/4 146/397/4
f 142/402/140 140/343/140 137/368/140
f 136/408/141 138/447/141 135/409/141
f 147/389/142 134/432/142 132/346/142
f 144/419/146 146/448/146 143/420/146
