0.000000,4000.000000
97.800003,40000.000000
10.500000,40000.000000
10.700000,40000.000000
11.100000,40000.000000
9.800000,40000.000000
9.600000,40000.000000
10.600000,40000.000000
10.900000,40000.000000
10.700000,40000.000000
11.100000,40000.000000
10.300000,40000.000000
11.100000,40000.000000
11.000000,40000.000000
10.800000,40000.000000
10.800000,40000.000000
10.400000,40000.000000
11.000000,40000.000000
11.100000,40000.000000
11.300000,40000.000000
10.800000,40000.000000
11.300000,40000.000000
11.300000,40000.000000
10.400000,40000.000000
10.100000,40000.000000
10.600000,40000.000000
10.700000,40000.000000
10.500000,40000.000000
10.900000,40000.000000
10.500000,40000.000000
11.000000,40000.000000
11.200000,40000.000000
11.000000,40000.000000
10.900000,40000.000000
11.000000,40000.000000
10.700000,40000.000000
11.500000,40000.000000
10.300000,40000.000000
10.900000,40000.000000
10.700000,40000.000000
10.600000,40000.000000
11.100000,40000.000000
10.600000,40000.000000
10.300000,40000.000000
10.100000,40000.000000
10.600000,40000.000000
10.800000,40000.000000
10.400000,40000.000000
10.400000,40000.000000
10.500000,40000.000000
10.400000,40000.000000
10.800000,40000.000000
11.100000,40000.000000
10.800000,40000.000000
11.100000,40000.000000
10.900000,40000.000000
11.100000,40000.000000
11.200000,40000.000000
10.800000,40000.000000
10.900000,40000.000000
10.800000,40000.000000
10.600000,40000.000000
10.700000,40000.000000
11.000000,40000.000000
10.400000,40000.000000
11.000000,40000.000000
10.700000,40000.000000
10.700000,40000.000000
11.200000,40000.000000
10.400000,40000.000000
10.800000,40000.000000
11.000000,40000.000000
11.300000,40000.000000
10.700000,40000.000000
10.900000,40000.000000
11.200000,40000.000000
11.100000,40000.000000
10.900000,40000.000000
11.000000,40000.000000
10.600000,40000.000000
11.200000,40000.000000
10.600000,40000.000000
10.700000,40000.000000
11.400000,40000.000000
11.300000,40000.000000
11.100000,40000.000000
11.100000,40000.000000
10.300000,40000.000000
10.300000,40000.000000
10.000000,40000.000000
10.900000,40000.000000
10.600000,40000.000000
10.500000,40000.000000
11.000000,40000.000000
10.700000,40000.000000
10.500000,40000.000000
11.000000,40000.000000
11.300000,40000.000000
10.800000,40000.000000
10.600000,40000.000000
9.800000,40000.000000
9.800000,40000.000000
9.600000,40000.000000
9.800000,40000.000000
10.600000,40000.000000
9.900000,40000.000000
9.800000,40000.000000
9.900000,40000.000000
10.200000,40000.000000
9.700000,40000.000000
9.800000,40000.000000
9.400000,40000.000000
9.700000,40000.000000
9.600000,40000.000000
9.400000,40000.000000
9.700000,40000.000000
9.600000,40000.000000
9.800000,40000.000000
9.800000,40000.000000
9.600000,40000.000000
9.700000,40000.000000
9.800000,40000.000000
9.500000,40000.000000
12.200000,40000.000000
10.500000,40000.000000
9.600000,40000.000000
9.800000,40000.000000
10.100000,40000.000000
9.600000,40000.000000
9.800000,40000.000000
13.300000,40000.000000
10.600000,40000.000000
9.600000,40000.000000
10.000000,40000.000000
9.500000,40000.000000
10.100000,40000.000000
9.500000,40000.000000
10.000000,40000.000000
9.700000,40000.000000
9.800000,40000.000000
9.800000,40000.000000
10.000000,40000.000000
9.800000,40000.000000
9.800000,40000.000000
9.500000,40000.000000
10.000000,40000.000000
10.000000,40000.000000
9.700000,40000.000000
9.400000,40000.000000
9.800000,40000.000000
9.400000,40000.000000
8.300000,40000.000000
8.800000,40000.000000
8.500000,40000.000000
8.300000,40000.000000
8.400000,40000.000000
8.500000,40000.000000
8.400000,40000.000000
8.600000,40000.000000
8.400000,40000.000000
8.400000,40000.000000
8.700000,40000.000000
8.300000,40000.000000
8.400000,40000.000000
8.400000,40000.000000
8.700000,40000.000000
8.600000,40000.000000
8.300000,40000.000000
8.800000,40000.000000
8.400000,40000.000000
8.200000,40000.000000
8.700000,40000.000000
8.700000,40000.000000
8.800000,40000.000000
9.000000,40000.000000
8.900000,40000.000000
8.700000,40000.000000
8.400000,40000.000000
8.000000,40000.000000
8.400000,40000.000000
8.300000,40000.000000
8.600000,40000.000000
8.500000,40000.000000
8.600000,40000.000000
8.600000,40000.000000
8.400000,40000.000000
8.600000,40000.000000
8.300000,40000.000000
8.900000,40000.000000
8.400000,40000.000000
8.700000,40000.000000
8.500000,40000.000000
8.200000,40000.000000
8.600000,40000.000000
8.600000,40000.000000
8.800000,40000.000000
8.400000,40000.000000
8.600000,40000.000000
8.200000,40000.000000
8.300000,40000.000000
8.400000,40000.000000
8.800000,40000.000000
9.000000,40000.000000
8.400000,40000.000000
8.400000,40000.000000
8.500000,40000.000000
8.800000,40000.000000
8.100000,40000.000000
8.700000,40000.000000
9.000000,40000.000000
8.700000,40000.000000
8.600000,40000.000000
8.700000,40000.000000
8.700000,40000.000000
8.300000,40000.000000
8.300000,40000.000000
8.700000,40000.000000
8.500000,40000.000000
8.400000,40000.000000
8.700000,40000.000000
8.500000,40000.000000
8.500000,40000.000000
8.700000,40000.000000
8.500000,40000.000000
8.800000,40000.000000
9.100000,40000.000000
8.400000,40000.000000
9.200000,40000.000000
9.300000,40000.000000
9.200000,40000.000000
8.600000,40000.000000
8.800000,40000.000000
8.200000,40000.000000
8.200000,40000.000000
8.800000,40000.000000
8.500000,40000.000000
8.600000,40000.000000
8.800000,40000.000000
8.700000,40000.000000
9.500000,40000.000000
8.500000,40000.000000
8.400000,40000.000000
8.600000,40000.000000
8.800000,40000.000000
8.400000,40000.000000
8.300000,40000.000000
8.500000,40000.000000
8.700000,40000.000000
8.300000,40000.000000
8.700000,40000.000000
8.300000,40000.000000
8.600000,40000.000000
9.000000,40000.000000
8.900000,40000.000000
8.700000,40000.000000
8.200000,40000.000000
9.000000,40000.000000
9.100000,40000.000000
8.800000,40000.000000
8.300000,40000.000000
8.500000,40000.000000
8.500000,40000.000000
8.700000,40000.000000
8.700000,40000.000000
8.500000,40000.000000
8.700000,40000.000000
9.100000,40000.000000
9.000000,40000.000000
8.200000,40000.000000
8.600000,40000.000000
8.500000,40000.000000
8.400000,40000.000000
8.500000,40000.000000
8.500000,40000.000000
8.600000,40000.000000
8.400000,40000.000000
8.600000,40000.000000
8.300000,40000.000000
8.300000,40000.000000
8.600000,40000.000000
8.600000,40000.000000
8.700000,40000.000000
8.400000,40000.000000
8.700000,40000.000000
8.400000,40000.000000
8.700000,40000.000000
8.400000,40000.000000
8.800000,40000.000000
8.600000,40000.000000
8.400000,40000.000000
8.400000,40000.000000
8.700000,40000.000000
8.700000,40000.000000
8.700000,40000.000000
8.800000,40000.000000
9.200000,40000.000000
8.900000,40000.000000
8.500000,40000.000000
8.500000,40000.000000
8.400000,40000.000000
8.500000,40000.000000
8.400000,40000.000000
8.600000,40000.000000
8.300000,40000.000000
8.500000,40000.000000
8.500000,40000.000000
8.800000,40000.000000
8.600000,40000.000000
8.400000,40000.000000
8.500000,40000.000000
8.200000,40000.000000
8.400000,40000.000000
8.500000,40000.000000
8.600000,40000.000000
8.600000,40000.000000
8.400000,40000.000000
8.600000,40000.000000
8.400000,40000.000000
8.400000,40000.000000
8.400000,40000.000000
8.700000,40000.000000
8.700000,40000.000000
8.700000,40000.000000
8.400000,40000.000000
8.500000,40000.000000
8.600000,40000.000000
8.400000,40000.000000
8.600000,40000.000000
8.400000,40000.000000
9.200000,40000.000000
8.700000,40000.000000
8.500000,40000.000000
8.600000,40000.000000
8.900000,40000.000000
8.600000,40000.000000
8.800000,40000.000000
8.300000,40000.000000
8.500000,40000.000000
8.500000,40000.000000
8.700000,40000.000000
8.900000,40000.000000
8.100000,40000.000000
8.300000,40000.000000
8.600000,40000.000000
8.400000,40000.000000
8.500000,40000.000000
8.400000,40000.000000
8.500000,40000.000000
8.500000,40000.000000
8.500000,40000.000000
8.400000,40000.000000
8.500000,40000.000000
8.400000,40000.000000
8.500000,40000.000000
8.400000,40000.000000
9.000000,40000.000000
8.600000,40000.000000
8.300000,40000.000000
8.500000,40000.000000
8.400000,40000.000000
8.800000,40000.000000
9.000000,40000.000000
9.200000,40000.000000
8.900000,40000.000000
8.800000,40000.000000
8.600000,40000.000000
8.700000,40000.000000
8.800000,40000.000000
9.100000,40000.000000
8.900000,40000.000000
8.500000,40000.000000
8.400000,40000.000000
8.600000,40000.000000
9.000000,40000.000000
8.700000,40000.000000
8.600000,40000.000000
9.300000,40000.000000
8.700000,40000.000000
8.200000,40000.000000
8.200000,40000.000000
8.500000,40000.000000
8.600000,40000.000000
8.700000,40000.000000
8.400000,40000.000000
9.000000,40000.000000
8.700000,40000.000000
8.400000,40000.000000
8.400000,40000.000000
8.300000,40000.000000
8.400000,40000.000000
8.500000,40000.000000
9.100000,40000.000000
8.800000,40000.000000
9.000000,40000.000000
8.900000,40000.000000
8.600000,40000.000000
8.500000,40000.000000
8.100000,40000.000000
8.600000,40000.000000
8.900000,40000.000000
9.000000,40000.000000
8.700000,40000.000000
8.500000,40000.000000
8.500000,40000.000000
8.600000,40000.000000
8.200000,40000.000000
8.900000,40000.000000
8.500000,40000.000000
8.400000,40000.000000
8.500000,40000.000000
8.400000,40000.000000
8.400000,40000.000000
8.600000,40000.000000
8.300000,40000.000000
8.400000,40000.000000
8.700000,40000.000000
8.300000,40000.000000
8.400000,40000.000000
8.900000,40000.000000
8.700000,40000.000000
9.100000,40000.000000
9.100000,40000.000000
8.400000,40000.000000
8.300000,40000.000000
8.500000,40000.000000
8.600000,40000.000000
8.600000,40000.000000
8.600000,40000.000000
8.500000,40000.000000
8.200000,40000.000000
8.600000,40000.000000
8.800000,40000.000000
8.200000,40000.000000
8.500000,40000.000000
9.000000,40000.000000
8.200000,40000.000000
8.600000,40000.000000
8.900000,40000.000000
8.300000,40000.000000
8.300000,40000.000000
8.900000,40000.000000
8.500000,40000.000000
8.300000,40000.000000
8.300000,40000.000000
8.600000,40000.000000
8.700000,40000.000000
8.500000,40000.000000
8.800000,40000.000000
9.100000,40000.000000
8.900000,40000.000000
8.400000,40000.000000
8.500000,40000.000000
8.200000,40000.000000
8.700000,40000.000000
8.700000,40000.000000
8.800000,40000.000000
8.900000,40000.000000
8.200000,40000.000000
8.500000,40000.000000
8.600000,40000.000000
8.400000,40000.000000
8.700000,40000.000000
8.700000,40000.000000
8.900000,40000.000000
9.000000,40000.000000
8.600000,40000.000000
8.400000,40000.000000
8.200000,40000.000000
8.500000,40000.000000
8.600000,40000.000000
8.600000,40000.000000
8.500000,40000.000000
8.400000,40000.000000
8.700000,40000.000000
8.700000,40000.000000
8.600000,40000.000000
8.300000,40000.000000
8.300000,40000.000000
8.800000,40000.000000
8.500000,40000.000000
8.600000,40000.000000
8.700000,40000.000000
8.000000,40000.000000
8.600000,40000.000000
8.800000,40000.000000
8.500000,40000.000000
8.700000,40000.000000
8.100000,40000.000000
8.700000,40000.000000
8.400000,40000.000000
8.700000,40000.000000
8.600000,40000.000000
8.800000,40000.000000
8.400000,40000.000000
9.200000,40000.000000
8.900000,40000.000000
8.300000,40000.000000
8.500000,40000.000000
8.900000,40000.000000
8.400000,40000.000000
8.700000,40000.000000
8.600000,40000.000000
8.100000,40000.000000
8.500000,40000.000000
8.300000,40000.000000
9.100000,40000.000000
8.800000,40000.000000
8.500000,40000.000000
8.900000,40000.000000
8.500000,40000.000000
8.500000,40000.000000
8.600000,40000.000000
8.700000,40000.000000
8.200000,40000.000000
8.600000,40000.000000
8.600000,40000.000000
8.400000,40000.000000
8.900000,40000.000000
8.700000,40000.000000
8.300000,40000.000000
8.400000,40000.000000
8.600000,40000.000000
8.400000,40000.000000
8.800000,40000.000000
9.100000,40000.000000
8.700000,40000.000000
8.400000,40000.000000
8.700000,40000.000000
8.900000,40000.000000
9.200000,40000.000000
8.600000,40000.000000
8.300000,40000.000000
8.400000,40000.000000
8.400000,40000.000000
8.700000,40000.000000
8.700000,40000.000000
9.100000,40000.000000
8.600000,40000.000000
9.100000,40000.000000
8.400000,40000.000000
8.100000,40000.000000
9.000000,40000.000000
8.400000,40000.000000
8.500000,40000.000000
8.700000,40000.000000
8.800000,40000.000000
9.000000,40000.000000
8.400000,40000.000000
8.700000,40000.000000
8.500000,40000.000000
8.800000,40000.000000
8.200000,40000.000000
8.800000,40000.000000
8.300000,40000.000000
8.500000,40000.000000
8.400000,40000.000000
8.500000,40000.000000
8.600000,40000.000000
8.900000,40000.000000
8.500000,40000.000000
9.000000,40000.000000
9.100000,40000.000000
8.200000,40000.000000
8.700000,40000.000000
8.500000,40000.000000
8.900000,40000.000000
9.100000,40000.000000
8.400000,40000.000000
8.400000,40000.000000
8.500000,40000.000000
8.300000,40000.000000
8.700000,40000.000000
8.800000,40000.000000
8.700000,40000.000000
9.000000,40000.000000
8.600000,40000.000000
8.800000,40000.000000
8.200000,40000.000000
9.000000,40000.000000
8.900000,40000.000000
8.300000,40000.000000
9.100000,40000.000000
8.900000,40000.000000
8.700000,40000.000000
8.500000,40000.000000
8.600000,40000.000000
8.500000,40000.000000
8.600000,40000.000000
8.600000,40000.000000
8.600000,40000.000000
8.900000,40000.000000
9.200000,40000.000000
8.600000,40000.000000
8.300000,40000.000000
8.500000,40000.000000
8.600000,40000.000000
8.400000,40000.000000
8.600000,40000.000000
8.600000,40000.000000
8.600000,40000.000000
8.300000,40000.000000
8.500000,40000.000000
8.800000,40000.000000
8.400000,40000.000000
8.500000,40000.000000
8.600000,40000.000000
8.400000,40000.000000
8.600000,40000.000000
8.600000,40000.000000
8.800000,40000.000000
8.600000,40000.000000
8.600000,40000.000000
8.300000,40000.000000
8.600000,40000.000000
8.500000,40000.000000
8.700000,40000.000000
8.600000,40000.000000
8.400000,40000.000000
8.600000,40000.000000
8.300000,40000.000000
8.400000,40000.000000
8.600000,40000.000000
8.700000,40000.000000
8.400000,40000.000000
8.600000,40000.000000
8.400000,40000.000000
8.400000,40000.000000
8.600000,40000.000000
8.200000,40000.000000
8.700000,40000.000000
8.400000,40000.000000
8.300000,40000.000000
8.500000,40000.000000
8.600000,40000.000000
8.500000,40000.000000
8.500000,40000.000000
8.500000,40000.000000
8.500000,40000.000000
8.400000,40000.000000
8.700000,40000.000000
9.000000,40000.000000
8.800000,40000.000000
8.400000,40000.000000
8.300000,40000.000000
8.900000,40000.000000
8.200000,40000.000000
8.100000,40000.000000
8.400000,40000.000000
8.400000,40000.000000
8.600000,40000.000000
8.700000,40000.000000
8.700000,40000.000000
8.300000,40000.000000
8.200000,40000.000000
8.700000,40000.000000
8.500000,40000.000000
8.300000,40000.000000
8.900000,40000.000000
8.900000,40000.000000
8.600000,40000.000000
8.600000,40000.000000
8.300000,40000.000000
8.500000,40000.000000
8.300000,40000.000000
8.700000,40000.000000
8.700000,40000.000000
8.300000,40000.000000
9.000000,40000.000000
8.600000,40000.000000
8.800000,40000.000000
8.400000,40000.000000
8.400000,40000.000000
8.500000,40000.000000
8.800000,40000.000000
8.700000,40000.000000
9.000000,40000.000000
8.300000,40000.000000
8.500000,40000.000000
8.500000,40000.000000
8.600000,40000.000000
8.900000,40000.000000
8.600000,40000.000000
8.900000,40000.000000
8.400000,40000.000000
8.900000,40000.000000
8.200000,40000.000000
8.700000,40000.000000
8.400000,40000.000000
8.600000,40000.000000
8.500000,40000.000000
8.800000,40000.000000
8.400000,40000.000000
8.300000,40000.000000
8.900000,40000.000000
9.000000,40000.000000
9.100000,40000.000000
8.100000,40000.000000
8.600000,40000.000000
8.500000,40000.000000
8.400000,40000.000000
8.500000,40000.000000
8.700000,40000.000000
8.900000,40000.000000
8.300000,40000.000000
9.100000,40000.000000
8.900000,40000.000000
8.900000,40000.000000
8.500000,40000.000000
9.100000,40000.000000
9.200000,40000.000000
8.900000,40000.000000
8.200000,40000.000000
8.200000,40000.000000
8.500000,40000.000000
8.800000,40000.000000
8.600000,40000.000000
8.900000,40000.000000
9.000000,40000.000000
8.800000,40000.000000
8.800000,40000.000000
ft avg: 9.105556
ft max: 525.000000
ft min: 0.000000
prim avg: 40000.000000
